{
	"versions": [
		{
			"update": "1.0.0",
			"jar": "https://launcher.mojang.com/v1/objects/b679fea27f2284836202e9365e13a82552092e5d/client.jar",
			"json": "https://launchermeta.mojang.com/v1/packages/b37678e5477edf44d7fabea9957106ad9bc309a2/1.0.json"
		},
		{
			"update": "1.1",
			"jar": "https://launcher.mojang.com/v1/objects/f690d4136b0026d452163538495b9b0e8513d718/client.jar",
			"json": "https://launchermeta.mojang.com/v1/packages/ff5090f9c4a71c454d9f0d1c4d0f61aa810b282b/1.1.json"
		},
        {
            "update": "1.2.1",
            "jar": "https://launcher.mojang.com/v1/objects/c7662ac43dd04bfd677694a06972a2aaaf426505/client.jar",
            "json": "https://launchermeta.mojang.com/v1/packages/336126769b60851df3d17acaea21715575e2c427/1.2.1.json"
        },
        {
            "update": "1.2.2",
            "jar": "https://launcher.mojang.com/v1/objects/1dadfc4de6898751f547f24f72c7271218e4e28f/client.jar",
            "json": "https://launchermeta.mojang.com/v1/packages/00c0f7895513335aec6693ec42c29ed033b1245c/1.2.2.json"
        },
        {
            "update": "1.2.3",
            "jar": "https://launcher.mojang.com/v1/objects/5134e433afeba375c00bbdcd8aead1d3222813ee/client.jar",
            "json": "https://launchermeta.mojang.com/v1/packages/732667ccdad3ded51308bb2ee98b39cc91478e09/1.2.3.json"
        },
        {
            "update": "1.2.4",
            "jar": "https://launcher.mojang.com/v1/objects/ad6d1fe7455857269d4185cb8f24e62cc0241aaf/client.jar",
            "json": "https://launchermeta.mojang.com/v1/packages/7b1328920b979517feb3210d73f4da7f52955e60/1.2.4.json"
        },
        {
            "update": "1.2.5",
            "jar": "https://launcher.mojang.com/v1/objects/4a2fac7504182a97dcbcd7560c6392d7c8139928/client.jar",
            "json": "https://launchermeta.mojang.com/v1/packages/10d52c2d052078115cbbaf6e927b8a1af1ac206b/1.2.5.json"
        },
        {
            "update": "1.3.1",
            "jar": "https://launcher.mojang.com/v1/objects/33167e71e85ab8e6ddbe168bc67f6ec19d708d62/client.jar",
            "json": "https://launchermeta.mojang.com/v1/packages/af8b3899e7740cb5c83b8825dc6a0ed2f71e1b1f/1.3.1.json"
        },
        {
            "update": "1.3.2",
            "jar": "https://launcher.mojang.com/v1/objects/c2efd57c7001ddf505ca534e54abf3d006e48309/client.jar",
            "json": "https://launchermeta.mojang.com/v1/packages/f26cd0fc6c8f18f54cf43a529faac3c0cc9de7ac/1.3.2.json"
        },
        {
            "update": "1.4.2",
            "jar": "https://launcher.mojang.com/v1/objects/42d6744cfbbd2958f9e6688dd6e78d86d658d0d4/client.jar",
            "json": "https://launchermeta.mojang.com/v1/packages/654842fb5da43a3b3df9cf76ddb46e6a88a6ad08/1.4.2.json"
        },
        {
            "update": "1.4.4",
            "jar": "https://launcher.mojang.com/v1/objects/b9b2a9e9adf1bc834647febc93a4222b4fd6e403/client.jar",
            "json": "https://launchermeta.mojang.com/v1/packages/bd4ba783db61fdf4f23638b03bc6e5dd77e6c3e8/1.4.4.json"
        },
        {
            "update": "1.4.5",
            "jar": "https://launcher.mojang.com/v1/objects/7a8a963ababfec49406e1541d3a87198e50604e5/client.jar",
            "json": "https://launchermeta.mojang.com/v1/packages/0529655d5f71b11f962debe52937af2f5499bf89/1.4.5.json"
        },
        {
            "update": "1.4.6",
            "jar": "https://launcher.mojang.com/v1/objects/116758f41b32e8d1a71a4ad6236579acd724bca7/client.jar",
            "json": "https://launchermeta.mojang.com/v1/packages/0a0a5ec9d5b9d9b0d917bfcd286f04e268475c17/1.4.6.json"
        },
        {
            "update": "1.4.7",
            "jar": "https://launcher.mojang.com/v1/objects/53ed4b9d5c358ecfff2d8b846b4427b888287028/client.jar",
            "json": "https://launchermeta.mojang.com/v1/packages/1f39de3ea637baf634a1a9cfcbb17ea41ee6edfe/1.4.7.json"
        },
        {
            "update": "1.5",
            "jar": "https://launcher.mojang.com/v1/objects/a3da981fc9b875a51975d8f8100cc0c201c2ce54/client.jar",
            "json": "https://launchermeta.mojang.com/v1/packages/737ffeea721a7a5a5f92f91e6e6ca670f1e7080f/1.5.json"
        },
        {
            "update": "1.5.1",
            "jar": "https://launcher.mojang.com/v1/objects/047136381a552f34b1963c43304a1ad4dc0d2d8e/client.jar",
            "json": "https://launchermeta.mojang.com/v1/packages/71734ab8e78abfa294fedd297aef2dff6e8a9127/1.5.1.json"
        },
        {
            "update": "1.5.2",
            "jar": "https://launcher.mojang.com/v1/objects/465378c9dc2f779ae1d6e8046ebc46fb53a57968/client.jar",
            "json": "https://launchermeta.mojang.com/v1/packages/b2c923ac5d0a933eb76a9ff54da59aaab18b4625/1.5.2.json"
        },
        {
            "update": "1.6.1",
            "jar": "https://launcher.mojang.com/v1/objects/17e2c28fb54666df5640b2c822ea8042250ef592/client.jar",
            "json": "https://launchermeta.mojang.com/v1/packages/7fd8e0c76f62813eb0465e31bb74b160c01472d6/1.6.1.json"
        },
        {
            "update": "1.6.2",
            "jar": "https://launcher.mojang.com/v1/objects/b6cb68afde1d9cf4a20cbf27fa90d0828bf440a4/client.jar",
            "json": "https://launchermeta.mojang.com/v1/packages/c0729761bf65dc58138ce508645dba1442fa78b8/1.6.2.json"
        },
        {
            "update": "1.6.4",
            "jar": "https://launcher.mojang.com/v1/objects/1703704407101cf72bd88e68579e3696ce733ecd/client.jar",
            "json": "https://launchermeta.mojang.com/v1/packages/b71bae449192fbbe1582ff32fb3765edf0b9b0a8/1.6.4.json"
        },
        {
            "update": "1.7.2",
            "jar": "https://launcher.mojang.com/v1/objects/0c8689f904922af71c7144dcfb81bce976cadd49/client.jar",
            "json": "https://launchermeta.mojang.com/v1/packages/83a7d28760ed623225e7cb2e29db140cc68540e8/1.7.2.json"
        },
        {
            "update": "1.7.4",
            "jar": "https://launcher.mojang.com/v1/objects/900950d8e3217b3a42405d1ecf767dcc31239d69/client.jar",
            "json": "https://launchermeta.mojang.com/v1/packages/b06faa2910235ba9ecfab434e54e04a0d5f6187d/1.7.4.json"
        },
        {
            "update": "1.7.5",
            "jar": "https://launcher.mojang.com/v1/objects/77aa70ac5054cbf1140b6449b579e950d5050c4a/client.jar",
            "json": "https://launchermeta.mojang.com/v1/packages/a0481eaa9979795bb567398a02cc3d7a3775403a/1.7.5.json"
        },
        {
            "update": "1.7.6",
            "jar": "https://launcher.mojang.com/v1/objects/6b2c5827994e17f904f0852f962dd6fccfbb8bdc/client.jar",
            "json": "https://launchermeta.mojang.com/v1/packages/4cdba7fb4ea885d508bf7469812bdcee6b490681/1.7.6.json"
        },
        {
            "update": "1.7.7",
            "jar": "https://launcher.mojang.com/v1/objects/e520f254a2b496d61839b816d712e238b1243f30/client.jar",
            "json": "https://launchermeta.mojang.com/v1/packages/ef55209910a073339aadf8394bb3504f6c03048c/1.7.7.json"
        },
        {
            "update": "1.7.8",
            "jar": "https://launcher.mojang.com/v1/objects/83ae44189888a873f46f7509a87ebdb6dc785741/client.jar",
            "json": "https://launchermeta.mojang.com/v1/packages/b9b245eb23540c2bb1f5886b1d3a353870c8b684/1.7.8.json"
        },
        {
            "update": "1.7.9",
            "jar": "https://launcher.mojang.com/v1/objects/fbbaae784b1de315a8d08a82c6c345a583fb676b/client.jar",
            "json": "https://launchermeta.mojang.com/v1/packages/930a26a3c81803e2f6b9a4069ac14c2e7aaf3b8a/1.7.9.json"
        },
        {
            "update": "1.7.10",
            "jar": "https://launcher.mojang.com/v1/objects/e80d9b3bf5085002218d4be59e668bac718abbc6/client.jar",
            "json": "https://launchermeta.mojang.com/v1/packages/2e818dc89e364c7efcfa54bec7e873c5f00b3840/1.7.10.json"
        },
        {
            "update": "1.8",
            "jar": "https://launcher.mojang.com/v1/objects/d722504db9de2b47f46cc592b8528446272ae648/client.jar",
            "json": "https://launchermeta.mojang.com/v1/packages/c6309181ce8df8a06ed556e315cd4636c4082b9a/1.8.json"
        },
        {
            "update": "1.8.1",
            "jar": "https://launcher.mojang.com/v1/objects/6edd2a3e3d76a7602c52f319f87cf11f7720b43b/client.jar",
            "json": "https://launchermeta.mojang.com/v1/packages/cc3bf2b602bcb4d55b4581ea9bb55c4e4b2d9bc9/1.8.1.json"
        },
        {
            "update": "1.8.2",
            "jar": "https://launcher.mojang.com/v1/objects/a8e71f6c81acfa834d249579a242f5b0852075c1/client.jar",
            "json": "https://launchermeta.mojang.com/v1/packages/05655de45c43872c48eea1e07ae9740bc4cdf47e/1.8.2.json"
        },
        {
            "update": "1.8.3",
            "jar": "https://launcher.mojang.com/v1/objects/69d14463ddc22e581bc66c66ef5eb72a8b452c46/client.jar",
            "json": "https://launchermeta.mojang.com/v1/packages/94f0e372077d0fe6cfeaad990b2c25ba67b3531c/1.8.3.json"
        },
        {
            "update": "1.8.4",
            "jar": "https://launcher.mojang.com/v1/objects/459204fabee3fd9976a6c942b24cbd8382d02d6e/client.jar",
            "json": "https://launchermeta.mojang.com/v1/packages/bf6b4b4bef435804faacc6fb8d350119a7482262/1.8.4.json"
        },
        {
            "update": "1.8.5",
            "jar": "https://launcher.mojang.com/v1/objects/5d39957c61d19042f8bd669a6faa99989cf37083/client.jar",
            "json": "https://launchermeta.mojang.com/v1/packages/ced2d59fde6e68ca9e84bbb00e5c7dc9c052df06/1.8.5.json"
        },
        {
            "update": "1.8.6",
            "jar": "https://launcher.mojang.com/v1/objects/faa55e34ded35089d34fe921ea83d317fc152e93/client.jar",
            "json": "https://launchermeta.mojang.com/v1/packages/13b52ffde81121125d69aec94589abfba7e04147/1.8.6.json"
        },
        {
            "update": "1.8.7",
            "jar": "https://launcher.mojang.com/v1/objects/d546a6a092060c85f1eb1d9213ff823c558b1255/client.jar",
            "json": "https://launchermeta.mojang.com/v1/packages/87c78678d155ff55fc91fc64a7a84f2daf855f1e/1.8.7.json"
        },
        {
            "update": "1.8.8",
            "jar": "https://launcher.mojang.com/v1/objects/0983f08be6a4e624f5d85689d1aca869ed99c738/client.jar",
            "json": "https://launchermeta.mojang.com/v1/packages/389ee2576f1c7ac6efe0edcec79f2e465d2a5278/1.8.8.json"
        },
        {
            "update": "1.8.9",
            "jar": "https://launcher.mojang.com/v1/objects/3870888a6c3d349d3771a3e9d16c9bf5e076b908/client.jar",
            "json": "https://launchermeta.mojang.com/v1/packages/856d9bec08b0d567de39f46efaf4b76066b53059/1.8.9.json"
        },
        {
            "update": "1.9",
            "jar": "https://launcher.mojang.com/v1/objects/2f67dfe8953299440d1902f9124f0f2c3a2c940f/client.jar",
            "json": "https://launchermeta.mojang.com/v1/packages/fab85b386a3de3009e5944b0183ce063faa09691/1.9.json"
        },
        {
            "update": "1.9.1",
            "jar": "https://launcher.mojang.com/v1/objects/9bc7f02323d90b9385c1a5dbd47fb144a3fb8835/client.jar",
            "json": "https://launchermeta.mojang.com/v1/packages/a7c5c055718d8e7d709f3f2338b4e8f1125b5aae/1.9.1.json"
        },
        {
            "update": "1.9.2",
            "jar": "https://launcher.mojang.com/v1/objects/19106fd5e222dca0f2dde9f66db8384c9a7db957/client.jar",
            "json": "https://launchermeta.mojang.com/v1/packages/3cc8cee91366290508c8767e8826c6352c2b89c5/1.9.2.json"
        },
        {
            "update": "1.9.3",
            "jar": "https://launcher.mojang.com/v1/objects/b6985b0d3a0520dfb6f17eeb1e8ba58ce9577061/client.jar",
            "json": "https://launchermeta.mojang.com/v1/packages/e8bab05ecee645e3c9b962f532ca7fd6c52e120e/1.9.3.json"
        },
        {
            "update": "1.9.4",
            "jar": "https://launcher.mojang.com/v1/objects/4a61c873be90bb1196d68dac7b29870408c56969/client.jar",
            "json": "https://launchermeta.mojang.com/v1/packages/7f40b382dedcfe9eca74a5b14d615075ec34c108/1.9.4.json"
        },
        {
            "update": "1.10",
            "jar": "https://launcher.mojang.com/v1/objects/ba038efbc6d9e4a046927a7658413d0276895739/client.jar",
            "json": "https://launchermeta.mojang.com/v1/packages/0590cc1c11f1be246af9d972f919693bf6b0d1f6/1.10.json"
        },
        {
            "update": "1.10.1",
            "jar": "https://launcher.mojang.com/v1/objects/44b389fff90324c4ca18796d4428a7b8ec6c2eb0/client.jar",
            "json": "https://launchermeta.mojang.com/v1/packages/ee31c565a9aa614676b786c55a0be77268743b60/1.10.1.json"
        },
        {
            "update": "1.10.2",
            "jar": "https://launcher.mojang.com/v1/objects/dc8e75ac7274ff6af462b0dcec43c307de668e40/client.jar",
            "json": "https://launchermeta.mojang.com/v1/packages/9e23991d61e9b4eb9dfee56cb8ee7392fb925aff/1.10.2.json"
        },
        {
            "update": "1.11",
            "jar": "https://launcher.mojang.com/v1/objects/780e46b3a96091a7f42c028c615af45974629072/client.jar",
            "json": "https://launchermeta.mojang.com/v1/packages/340d2e0f200af20b1e4d5da501facc7fc1cfb0e5/1.11.json"
        },
        {
            "update": "1.11.1",
            "jar": "https://launcher.mojang.com/v1/objects/0935745a11806d6b4cf00221938e7560c23f9291/client.jar",
            "json": "https://launchermeta.mojang.com/v1/packages/363096f6590653e170bcfd56c085c6a77578ba42/1.11.1.json"
        },
        {
            "update": "1.11.2",
            "jar": "https://launcher.mojang.com/v1/objects/db5aa600f0b0bf508aaf579509b345c4e34087be/client.jar",
            "json": "https://launchermeta.mojang.com/v1/packages/6bd228727ed48bd7ac7bdc0088587dad0fb7c02b/1.11.2.json"
        },
        {
            "update": "1.12",
            "jar": "https://launcher.mojang.com/v1/objects/909823f9c467f9934687f136bc95a667a0d19d7f/client.jar",
            "json": "https://launchermeta.mojang.com/v1/packages/367843437acbae63de3084dd6afd3dd8bd2a7479/1.12.json"
        },
        {
            "update": "1.12.1",
            "jar": "https://launcher.mojang.com/v1/objects/83385d346cf7f97d1e447b888750fb88e9928b93/client.jar",
            "json": "https://launchermeta.mojang.com/v1/packages/24b28f562e354309697a1c9d835dea55a185df1e/1.12.1.json"
        },
        {
            "update": "1.12.2",
            "jar": "https://launcher.mojang.com/v1/objects/0f275bc1547d01fa5f56ba34bdc87d981ee12daf/client.jar",
            "json": "https://launchermeta.mojang.com/v1/packages/6e69e85d0f85f4f4b9e12dd99d102092a6e15918/1.12.2.json"
        },
        {
            "update": "1.13",
            "jar": "https://launcher.mojang.com/v1/objects/c0b970952cdd279912da384cdbfc0c26e6c6090b/client.jar",
            "json": "https://launchermeta.mojang.com/v1/packages/1efd5dfcae060b847706500e408a76674922de89/1.13.json"
        },
        {
            "update": "1.13.1",
            "jar": "https://launcher.mojang.com/v1/objects/8de235e5ec3a7fce168056ea395d21cbdec18d7c/client.jar",
            "json": "https://launchermeta.mojang.com/v1/packages/bbed6214da465e25f769366835b7321d5380a1fa/1.13.1.json"
        },
        {
            "update": "1.13.2",
            "jar": "https://launcher.mojang.com/v1/objects/30bfe37a8db404db11c7edf02cb5165817afb4d9/client.jar",
            "json": "https://launchermeta.mojang.com/v1/packages/081135896bfc24424033c1ec0b2e5d3c69c5f764/1.13.2.json"
        },
        {
            "update": "1.14",
            "jar": "https://launcher.mojang.com/v1/objects/7a762a59345c13af7d87111207a93f5a8607f6c0/client.jar",
            "json": "https://launchermeta.mojang.com/v1/packages/d3c54d6469145f7c918537209660bf20e9207057/1.14.json"
        },
        {
            "update": "1.14.1",
            "jar": "https://launcher.mojang.com/v1/objects/55ba86ddcbc3579397f41910463ffd4056e1e523/client.jar",
            "json": "https://launchermeta.mojang.com/v1/packages/965bea1177bb974be2a0f7ee98ed732c0ab010b0/1.14.1.json"
        },
        {
            "update": "1.14.2",
            "jar": "https://launcher.mojang.com/v1/objects/ca6c5a139045967229975c0c0b7f93e78b4314c2/client.jar",
            "json": "https://launchermeta.mojang.com/v1/packages/8b96abed06b23d3b752e653ada36062d70bf3da1/1.14.2.json"
        },
        {
            "update": "1.14.3",
            "jar": "https://launcher.mojang.com/v1/objects/af100b34ec7ef2b8b9cf7775b544d21d690dddec/client.jar",
            "json": "https://launchermeta.mojang.com/v1/packages/2b9823a8699fb6811acd1f553c5bee009d30f64e/1.14.3.json"
        },
        {
            "update": "1.14.4",
            "jar": "https://launcher.mojang.com/v1/objects/8c325a0c5bd674dd747d6ebaa4c791fd363ad8a9/client.jar",
            "json": "https://launchermeta.mojang.com/v1/packages/fbe94183241ba2fcf8cfb71703d9a145c225a76e/1.14.4.json"
        },
        {
            "update": "1.15",
            "jar": "https://launcher.mojang.com/v1/objects/7b07fd09d1e3aae1bc7a1304fedc73bfe5d81800/client.jar",
            "json": "https://launchermeta.mojang.com/v1/packages/d15def518373e2044bb790f28b6fa3a47473ff0f/1.15.json"
        },
        {
            "update": "1.15.1",
            "jar": "https://launcher.mojang.com/v1/objects/8b11614bea9293592a947ea8f4fd72981ea66677/client.jar",
            "json": "https://launchermeta.mojang.com/v1/packages/5f08951bac12f943a09a62839ce8082215f201dd/1.15.1.json"
        },
        {
            "update": "1.15.2",
            "jar": "https://launcher.mojang.com/v1/objects/e3f78cd16f9eb9a52307ed96ebec64241cc5b32d/client.jar",
            "json": "https://launchermeta.mojang.com/v1/packages/b57e2563648f1a657dddab12d5626b0e6dde6ffd/1.15.2.json"
        },
        {
            "update": "1.16",
            "jar": "https://launcher.mojang.com/v1/objects/d3b551b100080ea7943e653268bb7f5a479ce618/client.jar",
            "json": "https://launchermeta.mojang.com/v1/packages/eeb5dedefe2ee986aa1a28fae226109861233c53/1.16.json"
        },
        {
            "update": "1.16.1",
            "jar": "https://launcher.mojang.com/v1/objects/c9abbe8ee4fa490751ca70635340b7cf00db83ff/client.jar",
            "json": "https://launchermeta.mojang.com/v1/packages/007e584150d3eb937762a491c340732d01cce945/1.16.1.json"
        },
        {
            "update": "1.16.2",
            "jar": "https://launcher.mojang.com/v1/objects/653e97a2d1d76f87653f02242d243cdee48a5144/client.jar",
            "json": "https://launchermeta.mojang.com/v1/packages/363cf3fef00f554a93ff3c54b189465efeb3d0bb/1.16.2.json"
        },
        {
            "update": "1.16.3",
            "jar": "https://launcher.mojang.com/v1/objects/1321521b2caf934f7fc9665aab7e059a7b2bfcdf/client.jar",
            "json": "https://launchermeta.mojang.com/v1/packages/0b83240b80de22bdd47d93d2a0ed6f45bbd2779f/1.16.3.json"
        },
        {
            "update": "1.16.4",
            "jar": "https://launcher.mojang.com/v1/objects/1952d94a0784e7abda230aae6a1e8fc0522dba99/client.jar",
            "json": "https://launchermeta.mojang.com/v1/packages/e54eda49b4a3b6dc407b952e494d0c32da422693/1.16.4.json"
        },
        {
            "update": "1.16.5",
            "jar": "https://launcher.mojang.com/v1/objects/37fd3c903861eeff3bc24b71eed48f828b5269c8/client.jar",
            "json": "https://launchermeta.mojang.com/v1/packages/436877ffaef948954053e1a78a366b8b7c204a91/1.16.5.json"
        }
    ]
}
